Library\Bee\artifacts\movedfrom\Unity.VisualScripting.Core.Editor.ref.dll_458458207557429540.movedfrom
Library\Bee\artifacts\movedfrom\Unity.VisualScripting.Core.ref.dll_3399541932646146909.movedfrom
Library\Bee\artifacts\movedfrom\Unity.VisualScripting.Flow.Editor.ref.dll_9479424099746919525.movedfrom
Library\Bee\artifacts\movedfrom\Unity.VisualScripting.Flow.ref.dll_8520381371119867916.movedfrom
Library\Bee\artifacts\movedfrom\Unity.VisualScripting.State.ref.dll_480716782142981865.movedfrom
Library\Bee\artifacts\movedfrom\UnityEditor.TestRunner.ref.dll_4390446533460773852.movedfrom
Library\Bee\artifacts\movedfrom\UnityEditor.UI.ref.dll_6750382132457868446.movedfrom
Library\Bee\artifacts\movedfrom\UnityEngine.TestRunner.ref.dll_651978004708829639.movedfrom
Library\Bee\artifacts\movedfrom\UnityEngine.UI.ref.dll_1879130396959814921.movedfrom
Library\Bee\artifacts\movedfrom\UnityEditor.Graphs.dll_5011921759945100184.movedfrom
Library\Bee\artifacts\movedfrom\UnityEditor.CoreModule.dll_13311000542391592806.movedfrom
Library\Bee\artifacts\movedfrom\UnityEditor.DeviceSimulatorModule.dll_13828236021007715643.movedfrom
Library\Bee\artifacts\movedfrom\UnityEditor.dll_4090303302673327439.movedfrom
Library\Bee\artifacts\movedfrom\UnityEditor.GraphViewModule.dll_11484396580440333696.movedfrom
Library\Bee\artifacts\movedfrom\UnityEditor.PackageManagerUIModule.dll_6718219310129459522.movedfrom
Library\Bee\artifacts\movedfrom\UnityEditor.QuickSearchModule.dll_14256923835021522210.movedfrom
Library\Bee\artifacts\movedfrom\UnityEditor.SceneTemplateModule.dll_358089280554666979.movedfrom
Library\Bee\artifacts\movedfrom\UnityEditor.UIBuilderModule.dll_17575705414154311348.movedfrom
Library\Bee\artifacts\movedfrom\UnityEditor.UIElementsModule.dll_11143024498205399266.movedfrom
Library\Bee\artifacts\movedfrom\UnityEditor.UIElementsSamplesModule.dll_9350201492330245291.movedfrom
Library\Bee\artifacts\movedfrom\UnityEditor.UIServiceModule.dll_3232322667449886414.movedfrom
Library\Bee\artifacts\movedfrom\UnityEditor.UnityConnectModule.dll_3030997743507786012.movedfrom
Library\Bee\artifacts\movedfrom\UnityEngine.AccessibilityModule.dll_4007530649900299136.movedfrom
Library\Bee\artifacts\movedfrom\UnityEngine.AIModule.dll_1272650785427703034.movedfrom
Library\Bee\artifacts\movedfrom\UnityEngine.AndroidJNIModule.dll_1796059465760475064.movedfrom
Library\Bee\artifacts\movedfrom\UnityEngine.AnimationModule.dll_7919089565350507046.movedfrom
Library\Bee\artifacts\movedfrom\UnityEngine.ARModule.dll_14635610448027165635.movedfrom
Library\Bee\artifacts\movedfrom\UnityEngine.AssetBundleModule.dll_703678243746130452.movedfrom
Library\Bee\artifacts\movedfrom\UnityEngine.AudioModule.dll_7482626253363059096.movedfrom
Library\Bee\artifacts\movedfrom\UnityEngine.ClothModule.dll_14897905272299485308.movedfrom
Library\Bee\artifacts\movedfrom\UnityEngine.ClusterInputModule.dll_12226351018724727778.movedfrom
Library\Bee\artifacts\movedfrom\UnityEngine.ClusterRendererModule.dll_14237151479653210815.movedfrom
Library\Bee\artifacts\movedfrom\UnityEngine.CoreModule.dll_15842255884933517969.movedfrom
Library\Bee\artifacts\movedfrom\UnityEngine.CrashReportingModule.dll_3482952123174038217.movedfrom
Library\Bee\artifacts\movedfrom\UnityEngine.DirectorModule.dll_2464927881045589230.movedfrom
Library\Bee\artifacts\movedfrom\UnityEngine.dll_7739422795861783092.movedfrom
Library\Bee\artifacts\movedfrom\UnityEngine.DSPGraphModule.dll_2848122429867200015.movedfrom
Library\Bee\artifacts\movedfrom\UnityEngine.GameCenterModule.dll_4844233467415918761.movedfrom
Library\Bee\artifacts\movedfrom\UnityEngine.GIModule.dll_12242373900590722324.movedfrom
Library\Bee\artifacts\movedfrom\UnityEngine.GridModule.dll_13352077475398707336.movedfrom
Library\Bee\artifacts\movedfrom\UnityEngine.HotReloadModule.dll_17234994326928051624.movedfrom
Library\Bee\artifacts\movedfrom\UnityEngine.ImageConversionModule.dll_3568684371928732339.movedfrom
Library\Bee\artifacts\movedfrom\UnityEngine.IMGUIModule.dll_11544766906035154297.movedfrom
Library\Bee\artifacts\movedfrom\UnityEngine.InputLegacyModule.dll_11171480970850885637.movedfrom
Library\Bee\artifacts\movedfrom\UnityEngine.InputModule.dll_14865652978218417724.movedfrom
Library\Bee\artifacts\movedfrom\UnityEngine.JSONSerializeModule.dll_10931684492783883274.movedfrom
Library\Bee\artifacts\movedfrom\UnityEngine.LocalizationModule.dll_16715536403383881435.movedfrom
Library\Bee\artifacts\movedfrom\UnityEngine.ParticleSystemModule.dll_9468879570515834455.movedfrom
Library\Bee\artifacts\movedfrom\UnityEngine.PerformanceReportingModule.dll_5904775588572969040.movedfrom
Library\Bee\artifacts\movedfrom\UnityEngine.Physics2DModule.dll_13442173900162410939.movedfrom
Library\Bee\artifacts\movedfrom\UnityEngine.PhysicsModule.dll_4825419898785949545.movedfrom
Library\Bee\artifacts\movedfrom\UnityEngine.ProfilerModule.dll_6087573737975530491.movedfrom
Library\Bee\artifacts\movedfrom\UnityEngine.RuntimeInitializeOnLoadManagerInitializerModule.dll_8680930693249405060.movedfrom
Library\Bee\artifacts\movedfrom\UnityEngine.ScreenCaptureModule.dll_12798335850437132396.movedfrom
Library\Bee\artifacts\movedfrom\UnityEngine.SharedInternalsModule.dll_13085140946087759363.movedfrom
Library\Bee\artifacts\movedfrom\UnityEngine.SpriteMaskModule.dll_3199419666880663075.movedfrom
Library\Bee\artifacts\movedfrom\UnityEngine.SpriteShapeModule.dll_2532471035052876318.movedfrom
Library\Bee\artifacts\movedfrom\UnityEngine.StreamingModule.dll_2484631644208621924.movedfrom
Library\Bee\artifacts\movedfrom\UnityEngine.SubstanceModule.dll_18385456858599188338.movedfrom
Library\Bee\artifacts\movedfrom\UnityEngine.SubsystemsModule.dll_10886332376130647606.movedfrom
Library\Bee\artifacts\movedfrom\UnityEngine.TerrainModule.dll_6718756308104458327.movedfrom
Library\Bee\artifacts\movedfrom\UnityEngine.TerrainPhysicsModule.dll_9503405142289920228.movedfrom
Library\Bee\artifacts\movedfrom\UnityEngine.TextCoreModule.dll_13470269524624026878.movedfrom
Library\Bee\artifacts\movedfrom\UnityEngine.TextRenderingModule.dll_15770555519874056289.movedfrom
Library\Bee\artifacts\movedfrom\UnityEngine.TilemapModule.dll_18174901664374853984.movedfrom
Library\Bee\artifacts\movedfrom\UnityEngine.TLSModule.dll_10947913987722163709.movedfrom
Library\Bee\artifacts\movedfrom\UnityEngine.UIElementsModule.dll_11192121300196143661.movedfrom
Library\Bee\artifacts\movedfrom\UnityEngine.UIElementsNativeModule.dll_12084738295064961380.movedfrom
Library\Bee\artifacts\movedfrom\UnityEngine.UIModule.dll_944906355218664102.movedfrom
Library\Bee\artifacts\movedfrom\UnityEngine.UmbraModule.dll_16333514642500240651.movedfrom
Library\Bee\artifacts\movedfrom\UnityEngine.UNETModule.dll_7962724454241191946.movedfrom
Library\Bee\artifacts\movedfrom\UnityEngine.UnityAnalyticsModule.dll_11747543518467590227.movedfrom
Library\Bee\artifacts\movedfrom\UnityEngine.UnityConnectModule.dll_1688788779442293191.movedfrom
Library\Bee\artifacts\movedfrom\UnityEngine.UnityCurlModule.dll_11602085394338554899.movedfrom
Library\Bee\artifacts\movedfrom\UnityEngine.UnityTestProtocolModule.dll_4433033701691441665.movedfrom
Library\Bee\artifacts\movedfrom\UnityEngine.UnityWebRequestAssetBundleModule.dll_5756680620035912036.movedfrom
Library\Bee\artifacts\movedfrom\UnityEngine.UnityWebRequestAudioModule.dll_14550653188420469480.movedfrom
Library\Bee\artifacts\movedfrom\UnityEngine.UnityWebRequestModule.dll_4838426418780138802.movedfrom
Library\Bee\artifacts\movedfrom\UnityEngine.UnityWebRequestTextureModule.dll_13104999800376559037.movedfrom
Library\Bee\artifacts\movedfrom\UnityEngine.UnityWebRequestWWWModule.dll_16566756829044941433.movedfrom
Library\Bee\artifacts\movedfrom\UnityEngine.VehiclesModule.dll_11094662042946604169.movedfrom
Library\Bee\artifacts\movedfrom\UnityEngine.VFXModule.dll_1787196997508472682.movedfrom
Library\Bee\artifacts\movedfrom\UnityEngine.VideoModule.dll_10151436101622543677.movedfrom
Library\Bee\artifacts\movedfrom\UnityEngine.VirtualTexturingModule.dll_14718416565344575983.movedfrom
Library\Bee\artifacts\movedfrom\UnityEngine.VRModule.dll_6912781166823854110.movedfrom
Library\Bee\artifacts\movedfrom\UnityEngine.WindModule.dll_5920503923164336378.movedfrom
Library\Bee\artifacts\movedfrom\UnityEngine.XRModule.dll_10569355538544860540.movedfrom
Library\Bee\artifacts\movedfrom\UnityEditor.WindowsStandalone.Extensions.dll_15274097179661481626.movedfrom